module gitlab.com/rackn/provision-plugins/v4

go 1.16

require (
	github.com/VictorLowther/jsonpatch2 v1.0.0
	github.com/VictorLowther/simplexml v0.0.0-20180716164440-0bff93621230
	github.com/cloudflare/cfssl v0.0.0-20181102015659-ea4033a214e7
	github.com/digitalocean/go-libvirt v0.0.0-20181105201604-08f982c676c6
	github.com/digitalocean/go-netbox v0.0.0-20180319151450-29433ec527e7
	github.com/facebookgo/clock v0.0.0-20150410010913-600d898af40a // indirect
	github.com/facebookgo/ensure v0.0.0-20160127193407-b4ab57deab51 // indirect
	github.com/facebookgo/limitgroup v0.0.0-20150612190941-6abd8d71ec01 // indirect
	github.com/facebookgo/muster v0.0.0-20150708232844-fd3d7953fd52 // indirect
	github.com/facebookgo/stack v0.0.0-20160209184415-751773369052 // indirect
	github.com/facebookgo/subset v0.0.0-20150612182917-8dac2c3c4870 // indirect
	github.com/ghodss/yaml v1.0.0
	github.com/go-openapi/analysis v0.19.0 // indirect
	github.com/go-openapi/errors v0.19.0 // indirect
	github.com/go-openapi/jsonpointer v0.19.0 // indirect
	github.com/go-openapi/jsonreference v0.19.0 // indirect
	github.com/go-openapi/loads v0.19.0 // indirect
	github.com/go-openapi/runtime v0.18.0
	github.com/go-openapi/spec v0.18.0 // indirect
	github.com/go-openapi/strfmt v0.18.0 // indirect
	github.com/go-openapi/swag v0.18.0 // indirect
	github.com/go-openapi/validate v0.18.0 // indirect
	github.com/google/certificate-transparency-go v0.0.0-20181206160638-61650fd8d5be // indirect
	github.com/gorilla/websocket v1.4.2
	github.com/hashicorp/vault/api v1.1.1
	github.com/honeycombio/libhoney-go v0.0.0-20181205211707-18ceb643e3f3
	github.com/itchyny/gojq v0.12.3
	github.com/kevinburke/go-bindata v3.13.0+incompatible
	github.com/kr/pretty v0.2.1 // indirect
	github.com/packethost/packngo v0.0.0-20181206143517-b36133050ae5
	github.com/pborman/uuid v1.2.0
	github.com/stmcginnis/gofish v0.6.0
	github.com/vishvananda/netlink v0.0.0-20181208180451-78a3099b7080
	github.com/vishvananda/netns v0.0.0-20180720170159-13995c7128cc // indirect
	gitlab.com/rackn/logger v1.1.1
	gitlab.com/rackn/provision/v4 v4.9.0-alpha00.0.20220201164146-6bb3a49ae657
	golang.org/x/net v0.0.0-20210903162142-ad29c8ab022f
	gopkg.in/alexcesaro/statsd.v2 v2.0.0 // indirect
	gopkg.in/imjoey/go-ovirt.v4 v4.0.6
	gopkg.in/yaml.v2 v2.4.0
)
